…
agr_avec_regroup
## # A tibble: 26 × 4
## # Groups:   zone [13]
##    zone  AGE_CAT   denom   num
##    <chr> <chr>     <int> <int>
##  1 01    [0,75)   176149     0
##  2 01    [75,Inf)  22948     6
##  3 02    [0,75)   251493     5
##  4 02    [75,Inf)  28456     4
##  5 04    [0,75)   475844     3
##  6 04    [75,Inf)  57016     4
##  7 05    [0,75)   456707     3
##  8 05    [75,Inf)  49853    16
##  9 07    [0,75)   376522     3
## 10 07    [75,Inf)  27743     0
## # ℹ 16 more rows
```
…
